<?xml version="1.0" encoding="UTF-8" standalone="no"?>
<!-- Created with Inkscape (http://www.inkscape.org/) -->

<svg
   xmlns:dc="http://purl.org/dc/elements/1.1/"
   xmlns:cc="http://creativecommons.org/ns#"
   xmlns:rdf="http://www.w3.org/1999/02/22-rdf-syntax-ns#"
   xmlns:svg="http://www.w3.org/2000/svg"
   xmlns="http://www.w3.org/2000/svg"
   xmlns:sodipodi="http://sodipodi.sourceforge.net/DTD/sodipodi-0.dtd"
   xmlns:inkscape="http://www.inkscape.org/namespaces/inkscape"
   width="110"
   height="17"
   viewBox="0 0 110 17"
   id="svg3366"
   version="1.1"
   inkscape:version="0.91 r13725"
   sodipodi:docname="recalstore90.svg">
  <defs
     id="defs3368" />
  <sodipodi:namedview
     id="base"
     pagecolor="#ffffff"
     bordercolor="#666666"
     borderopacity="1.0"
     inkscape:pageopacity="0.0"
     inkscape:pageshadow="2"
     inkscape:zoom="4"
     inkscape:cx="4.6807683"
     inkscape:cy="-15.404429"
     inkscape:document-units="px"
     inkscape:current-layer="layer1"
     showgrid="false"
     fit-margin-top="0"
     fit-margin-left="0"
     fit-margin-right="0"
     fit-margin-bottom="0"
     inkscape:window-width="1920"
     inkscape:window-height="1136"
     inkscape:window-x="0"
     inkscape:window-y="27"
     inkscape:window-maximized="1"
     units="px" />
  <metadata
     id="metadata3371">
    <rdf:RDF>
      <cc:Work
         rdf:about="">
        <dc:format>image/svg+xml</dc:format>
        <dc:type
           rdf:resource="http://purl.org/dc/dcmitype/StillImage" />
        <dc:title></dc:title>
      </cc:Work>
    </rdf:RDF>
  </metadata>
  <g
     inkscape:label="Calque 1"
     inkscape:groupmode="layer"
     id="layer1"
     transform="translate(-68.231897,-187.09005)">
    <g
       transform="matrix(0.438831,0,0,0.536349,34.964749,92.905007)"
       style="font-style:normal;font-weight:normal;font-size:44.22166443px;line-height:125%;font-family:sans-serif;letter-spacing:0px;word-spacing:0px;fill:#ffffff;fill-opacity:1;stroke:none;stroke-width:1px;stroke-linecap:butt;stroke-linejoin:miter;stroke-opacity:1"
       id="text3374">
      <path
         d="m 83.270969,189.89211 12.437342,0 0,-2.48747 -19.899748,0 0,12.43734 7.462406,0 0,-9.94987 z"
         style="font-style:normal;font-variant:normal;font-weight:normal;font-stretch:normal;font-size:49.74937057px;line-height:125%;font-family:'Mini Kaliber S TT (BRK)';-inkscape-font-specification:'Mini Kaliber S TT (BRK), Normal';text-align:start;writing-mode:lr-tb;text-anchor:start;fill:#ffffff;fill-opacity:1"
         id="path4147"
         inkscape:connector-curvature="0" />
      <path
         d="m 105.61932,194.86704 12.43734,0 0,-7.4624 -19.899746,0 0,12.43734 19.899746,0 0,-2.48747 -12.43734,0 0,-2.48747 z m 0,-4.97493 4.97494,0 0,2.48746 -4.97494,0 0,-2.48746 z"
         style="font-style:normal;font-variant:normal;font-weight:normal;font-stretch:normal;font-size:49.74937057px;line-height:125%;font-family:'Mini Kaliber S TT (BRK)';-inkscape-font-specification:'Mini Kaliber S TT (BRK), Normal';text-align:start;writing-mode:lr-tb;text-anchor:start;fill:#ffffff;fill-opacity:1"
         id="path4149"
         inkscape:connector-curvature="0" />
      <path
         d="m 127.96767,189.89211 12.43734,0 0,-2.48747 -19.89975,0 0,12.43734 19.89975,0 0,-2.48747 -12.43734,0 0,-7.4624 z"
         style="font-style:normal;font-variant:normal;font-weight:normal;font-stretch:normal;font-size:49.74937057px;line-height:125%;font-family:'Mini Kaliber S TT (BRK)';-inkscape-font-specification:'Mini Kaliber S TT (BRK), Normal';text-align:start;writing-mode:lr-tb;text-anchor:start;fill:#ffffff;fill-opacity:1"
         id="path4151"
         inkscape:connector-curvature="0" />
      <path
         d="m 142.85361,189.89211 12.43735,0 0,2.48746 -12.43735,0 0,7.46241 19.89975,0 0,-12.43734 -19.89975,0 0,2.48747 z m 7.46241,4.97493 4.97494,0 0,2.48747 -4.97494,0 0,-2.48747 z"
         style="font-style:normal;font-variant:normal;font-weight:normal;font-stretch:normal;font-size:49.74937057px;line-height:125%;font-family:'Mini Kaliber S TT (BRK)';-inkscape-font-specification:'Mini Kaliber S TT (BRK), Normal';text-align:start;writing-mode:lr-tb;text-anchor:start;fill:#ffffff;fill-opacity:1"
         id="path4153"
         inkscape:connector-curvature="0" />
      <path
         d="m 165.20197,199.84198 7.4624,0 0,-22.38722 -7.4624,0 0,22.38722 z"
         style="font-style:normal;font-variant:normal;font-weight:normal;font-stretch:normal;font-size:49.74937057px;line-height:125%;font-family:'Mini Kaliber S TT (BRK)';-inkscape-font-specification:'Mini Kaliber S TT (BRK), Normal';text-align:start;writing-mode:lr-tb;text-anchor:start;fill:#ffffff;fill-opacity:1"
         id="path4155"
         inkscape:connector-curvature="0" />
      <path
         d="m 175.11298,199.84198 19.89974,0 0,-7.46241 -12.43734,0 0,-2.48746 12.43734,0 0,-2.48747 -19.89974,0 0,7.4624 12.43734,0 0,2.48747 -12.43734,0 0,2.48747 z"
         style="font-style:normal;font-variant:normal;font-weight:normal;font-stretch:normal;font-size:49.74937057px;line-height:125%;font-family:'Mini Kaliber S TT (BRK)';-inkscape-font-specification:'Mini Kaliber S TT (BRK), Normal';text-align:start;writing-mode:lr-tb;text-anchor:start;fill:#ffffff;fill-opacity:1"
         id="path4157"
         inkscape:connector-curvature="0" />
      <path
         d="m 209.89867,189.89211 4.97494,0 0,-2.48747 -4.97494,0 0,-4.97494 -7.46241,0 0,4.97494 -4.97493,0 0,2.48747 4.97493,0 0,9.94987 7.46241,0 0,-9.94987 z"
         style="font-style:normal;font-variant:normal;font-weight:normal;font-stretch:normal;font-size:49.74937057px;line-height:125%;font-family:'Mini Kaliber S TT (BRK)';-inkscape-font-specification:'Mini Kaliber S TT (BRK), Normal';text-align:start;writing-mode:lr-tb;text-anchor:start;fill:#ffffff;fill-opacity:1"
         id="path4159"
         inkscape:connector-curvature="0" />
      <path
         d="m 217.38051,199.84198 19.89975,0 0,-12.43734 -19.89975,0 0,12.43734 z m 7.4624,-9.94987 4.97494,0 0,7.4624 -4.97494,0 0,-7.4624 z"
         style="font-style:normal;font-variant:normal;font-weight:normal;font-stretch:normal;font-size:49.74937057px;line-height:125%;font-family:'Mini Kaliber S TT (BRK)';-inkscape-font-specification:'Mini Kaliber S TT (BRK), Normal';text-align:start;writing-mode:lr-tb;text-anchor:start;fill:#ffffff;fill-opacity:1"
         id="path4161"
         inkscape:connector-curvature="0" />
      <path
         d="m 247.19126,189.89211 12.43734,0 0,-2.48747 -19.89975,0 0,12.43734 7.46241,0 0,-9.94987 z"
         style="font-style:normal;font-variant:normal;font-weight:normal;font-stretch:normal;font-size:49.74937057px;line-height:125%;font-family:'Mini Kaliber S TT (BRK)';-inkscape-font-specification:'Mini Kaliber S TT (BRK), Normal';text-align:start;writing-mode:lr-tb;text-anchor:start;fill:#ffffff;fill-opacity:1"
         id="path4163"
         inkscape:connector-curvature="0" />
      <path
         d="m 269.53962,194.86704 12.43734,0 0,-7.4624 -19.89975,0 0,12.43734 19.89975,0 0,-2.48747 -12.43734,0 0,-2.48747 z m 0,-4.97493 4.97493,0 0,2.48746 -4.97493,0 0,-2.48746 z"
         style="font-style:normal;font-variant:normal;font-weight:normal;font-stretch:normal;font-size:49.74937057px;line-height:125%;font-family:'Mini Kaliber S TT (BRK)';-inkscape-font-specification:'Mini Kaliber S TT (BRK), Normal';text-align:start;writing-mode:lr-tb;text-anchor:start;fill:#ffffff;fill-opacity:1"
         id="path4165"
         inkscape:connector-curvature="0" />
    </g>
    <g
       id="g3408"
       transform="matrix(0.11312006,0.04747012,-0.04747012,0.11312006,123.37919,146.28284)">
      <path
         style="fill:#ff0000"
         inkscape:connector-curvature="0"
         id="path67"
         d="m 456.69837,251.16516 c -13.9,0 -25.3,-11.3 -25.3,-25.3 0,-14 11.3,-25.3 25.3,-25.3 14,0 25.3,11.3 25.3,25.3 0,14 -11.3,25.3 -25.3,25.3 z m 0,-40.2 c -8.2,0 -14.9,6.7 -14.9,14.9 0,8.2 6.7,14.9 14.9,14.9 8.2,0 14.9,-6.7 14.9,-14.9 0,-8.2 -6.7,-14.9 -14.9,-14.9 z"
         class="st0" />
      <path
         style="fill:#ff5ddc"
         inkscape:connector-curvature="0"
         id="path69"
         d="m 552.26676,235.26858 c -0.15315,0.10289 -0.38287,0.25721 -0.53601,0.36011 l -31.97637,15.92562 c -1.17491,0.56706 -2.4539,0.64837 -3.63237,0.21761 -1.17846,-0.43076 -2.20497,-1.29701 -2.72058,-2.39535 L 497.47581,217.4002 c -1.13414,-2.34983 -0.22353,-5.2954 2.12629,-6.42952 l 31.97636,-15.92563 c 1.17493,-0.56707 2.45391,-0.64837 3.63237,-0.21762 1.17847,0.43076 2.20497,1.29702 2.72059,2.39536 l 15.92563,31.97636 c 1.10781,2.14524 0.40062,4.7319 -1.59029,6.06943 z m -32.44855,5.46284 23.34396,-11.57096 -11.57096,-23.34397 -23.34396,11.57096 11.57096,23.34397 z"
         class="st1" />
      <path
         style="fill:#027fe1"
         inkscape:connector-curvature="0"
         id="path71"
         d="m 457.39837,187.96516 c -0.3,0 -0.7,0 -1.1,-0.1 -2.8,-0.6 -4.6,-3.3 -4,-6.1 l 8.2,-39.3 c 0.6,-2.8 3.3,-4.6 6.1,-4 2.8,0.6 4.6,3.3 4,6.1 l -8.2,39.3 c -0.4,2.4 -2.6,4.1 -5,4.1 z"
         class="st2" />
      <path
         style="fill:#027fe1"
         inkscape:connector-curvature="0"
         id="path73"
         d="m 457.39837,187.96516 c -0.3,0 -0.7,0 -1.1,-0.1 -2.8,-0.6 -4.6,-3.3 -4,-6.1 l 8.2,-39.3 c 0.6,-2.8 3.3,-4.6 6.1,-4 2.8,0.6 4.6,3.3 4,6.1 l -8.2,39.3 c -0.4,2.4 -2.6,4.1 -5,4.1 z"
         class="st2" />
      <path
         style="fill:#027fe1"
         inkscape:connector-curvature="0"
         id="path75"
         d="m 481.19837,172.36516 c -0.3,0 -0.7,0 -1.1,-0.1 l -39.3,-8.2 c -2.8,-0.6 -4.6,-3.3 -4,-6.1 0.6,-2.8 3.3,-4.6 6.1,-4 l 39.3,8.2 c 2.8,0.6 4.6,3.3 4,6.1 -0.5,2.4 -2.6,4.1 -5,4.1 z"
         class="st2" />
      <path
         style="fill:#8aee49"
         inkscape:connector-curvature="0"
         id="path77"
         d="m 508.19837,185.16516 c -1.3,0 -2.5,-0.5 -3.4,-1.3 -1.4,-1.2 -2,-3.1 -1.6,-4.9 l 7.1,-33.8 c 0.4,-1.8 1.7,-3.3 3.4,-3.8 1.8,-0.6 3.7,-0.2 5.1,1 l 25.9,22.8 c 1.4,1.2 2,3.1 1.6,4.9 -0.4,1.8 -1.7,3.3 -3.4,3.9 l -33,10.9 c -0.6,0.2 -1.2,0.3 -1.7,0.3 z m 10.3,-29.2 -3.4,16.3 15.9,-5.3 -12.5,-11 z"
         class="st3" />
    </g>
    <flowRoot
       xml:space="preserve"
       id="flowRoot3435"
       style="font-style:normal;font-weight:normal;font-size:40px;line-height:125%;font-family:sans-serif;letter-spacing:0px;word-spacing:0px;fill:#000000;fill-opacity:1;stroke:none;stroke-width:1px;stroke-linecap:butt;stroke-linejoin:miter;stroke-opacity:1"
       transform="matrix(0.48514593,0,0,0.48514593,68.2319,181.19077)"><flowRegion
         id="flowRegion3437"><rect
           id="rect3439"
           width="92.681496"
           height="58.841385"
           x="139.14851"
           y="-26.287781" /></flowRegion><flowPara
         id="flowPara3441" /></flowRoot>  </g>
</svg>
